[
    {
        "pk":1,
        "model": "registrados.city",
        "fields":{
            "name": "Buenos Aires",
            "country_id": 1
        }
    },
    {
        "pk":2,
        "model": "registrados.city",
        "fields":{
            "name": "Capital Federal",
            "country_id": 1
        }
    },
    {
        "pk":3,
        "model": "registrados.city",
        "fields":{
            "name": "Catamarca",
            "country_id": 1
        }
    },
    {
        "pk":4,
        "model": "registrados.city",
        "fields":{
            "name": "Chaco",
            "country_id": 1
        }
    },
    {
        "pk":5,
        "model": "registrados.city",
        "fields":{
            "name": "Chubut",
            "country_id": 1
        }
    },
    {
        "pk":6,
        "model": "registrados.city",
        "fields":{
            "name": "Cordoba",
            "country_id": 1
        }
    },
    {
        "pk":7,
        "model": "registrados.city",
        "fields":{
            "name": "Corrientes",
            "country_id": 1
        }
    },
    {
        "pk":8,
        "model": "registrados.city",
        "fields":{
            "name": "Entre Rios",
            "country_id": 1
        }
    },
    {
        "pk":9,
        "model": "registrados.city",
        "fields":{
            "name": "Formosa",
            "country_id": 1
        }
    },
    {
        "pk":10,
        "model": "registrados.city",
        "fields":{
            "name": "Jujuy",
            "country_id": 1
        }
    },
    {
        "pk":11,
        "model": "registrados.city",
        "fields":{
            "name": "La Pampa",
            "country_id": 1
        }
    },
    {
        "pk":12,
        "model": "registrados.city",
        "fields":{
            "name": "La Rioja",
            "country_id": 1
        }
    },
    {
        "pk":13,
        "model": "registrados.city",
        "fields":{
            "name": "Mendoza",
            "country_id": 1
        }
    },
    {
        "pk":14,
        "model": "registrados.city",
        "fields":{
            "name": "Misiones",
            "country_id": 1
        }
    },
    {
        "pk":15,
        "model": "registrados.city",
        "fields":{
            "name": "Neuquen",
            "country_id": 1
        }
    },
    {
        "pk":16,
        "model": "registrados.city",
        "fields":{
            "name": "Rio Negro",
            "country_id": 1
        }
    },
    {
        "pk":17,
        "model": "registrados.city",
        "fields":{
            "name": "Salta",
            "country_id": 1
        }
    },
    {
        "pk":18,
        "model": "registrados.city",
        "fields":{
            "name": "San Juan",
            "country_id": 1
        }
    },
    {
        "pk":19,
        "model": "registrados.city",
        "fields":{
            "name": "San Luis",
            "country_id": 1
        }
    },
    {
        "pk":20,
        "model": "registrados.city",
        "fields":{
            "name": "Santa Cruz",
            "country_id": 1
        }
    },
    {
        "pk":21,
        "model": "registrados.city",
        "fields":{
            "name": "Santa Fe",
            "country_id": 1
        }
    },
    {
        "pk":22,
        "model": "registrados.city",
        "fields":{
            "name": "Santiago Del Estero",
            "country_id": 1
        }
    },
    {
        "pk":23,
        "model": "registrados.city",
        "fields":{
            "name": "Tierra Del Fuego",
            "country_id": 1
        }
    },
    {
        "pk":24,
        "model": "registrados.city",
        "fields":{
            "name": "Tucuman",
            "country_id": 1
        }
    },
    {
        "pk":25,
        "model": "registrados.city",
        "fields":{
            "name": "Chuquisaca",
            "country_id": 2
        }
    },
    {
        "pk":26,
        "model": "registrados.city",
        "fields":{
            "name": "Cobija",
            "country_id": 2
        }
    },
    {
        "pk":27,
        "model": "registrados.city",
        "fields":{
            "name": "Cochabamba",
            "country_id": 2
        }
    },
    {
        "pk":28,
        "model": "registrados.city",
        "fields":{
            "name": "La Paz",
            "country_id": 2
        }
    },
    {
        "pk":29,
        "model": "registrados.city",
        "fields":{
            "name": "Oruro",
            "country_id": 2
        }
    },
    {
        "pk":30,
        "model": "registrados.city",
        "fields":{
            "name": "Potos\u00ED",
            "country_id": 2
        }
    },
    {
        "pk":31,
        "model": "registrados.city",
        "fields":{
            "name": "Santa Cruz",
            "country_id": 2
        }
    },
    {
        "pk":32,
        "model": "registrados.city",
        "fields":{
            "name": "Tarija",
            "country_id": 2
        }
    },
    {
        "pk":33,
        "model": "registrados.city",
        "fields":{
            "name": "Trinidad",
            "country_id": 2
        }
    },
    {
        "pk":34,
        "model": "registrados.city",
        "fields":{
            "name": "Acre",
            "country_id": 3
        }
    },
    {
        "pk":35,
        "model": "registrados.city",
        "fields":{
            "name": "Alagoas",
            "country_id": 3
        }
    },
    {
        "pk":36,
        "model": "registrados.city",
        "fields":{
            "name": "Amap\u00E1",
            "country_id": 3
        }
    },
    {
        "pk":37,
        "model": "registrados.city",
        "fields":{
            "name": "Amazonas",
            "country_id": 3
        }
    },
    {
        "pk":38,
        "model": "registrados.city",
        "fields":{
            "name": "Bahia",
            "country_id": 3
        }
    },
    {
        "pk":39,
        "model": "registrados.city",
        "fields":{
            "name": "Cear\u00E1",
            "country_id": 3
        }
    },
    {
        "pk":40,
        "model": "registrados.city",
        "fields":{
            "name": "Distrito Federal",
            "country_id": 3
        }
    },
    {
        "pk":41,
        "model": "registrados.city",
        "fields":{
            "name": "Esp\u00EDrito Santo",
            "country_id": 3
        }
    },
    {
        "pk":42,
        "model": "registrados.city",
        "fields":{
            "name": "Goi\u00E1s",
            "country_id": 3
        }
    },
    {
        "pk":43,
        "model": "registrados.city",
        "fields":{
            "name": "Maranhão",
            "country_id": 3
        }
    },
    {
        "pk":44,
        "model": "registrados.city",
        "fields":{
            "name": "Mato Grosso",
            "country_id": 3
        }
    },
    {
        "pk":45,
        "model": "registrados.city",
        "fields":{
            "name": "Mato Grosso Do Sul",
            "country_id": 3
        }
    },
    {
        "pk":46,
        "model": "registrados.city",
        "fields":{
            "name": "Minas Gerais",
            "country_id": 3
        }
    },
    {
        "pk":47,
        "model": "registrados.city",
        "fields":{
            "name": "Par\u00E1",
            "country_id": 3
        }
    },
    {
        "pk":48,
        "model": "registrados.city",
        "fields":{
            "name": "Para\u00EDba",
            "country_id": 3
        }
    },
    {
        "pk":49,
        "model": "registrados.city",
        "fields":{
            "name": "Paran\u00E1",
            "country_id": 3
        }
    },
    {
        "pk":50,
        "model": "registrados.city",
        "fields":{
            "name": "Pernambuco",
            "country_id": 3
        }
    },
    {
        "pk":51,
        "model": "registrados.city",
        "fields":{
            "name": "Piau\u00ED",
            "country_id": 3
        }
    },
    {
        "pk":52,
        "model": "registrados.city",
        "fields":{
            "name": "Rio De Janeiro",
            "country_id": 3
        }
    },
    {
        "pk":53,
        "model": "registrados.city",
        "fields":{
            "name": "Rio Grande Do Norte",
            "country_id": 3
        }
    },
    {
        "pk":54,
        "model": "registrados.city",
        "fields":{
            "name": "Rio Grande Do Sul",
            "country_id": 3
        }
    },
    {
        "pk":55,
        "model": "registrados.city",
        "fields":{
            "name": "Rondônia",
            "country_id": 3
        }
    },
    {
        "pk":56,
        "model": "registrados.city",
        "fields":{
            "name": "Roraima",
            "country_id": 3
        }
    },
    {
        "pk":57,
        "model": "registrados.city",
        "fields":{
            "name": "Santa Catarina",
            "country_id": 3
        }
    },
    {
        "pk":58,
        "model": "registrados.city",
        "fields":{
            "name": "São Paulo",
            "country_id": 3
        }
    },
    {
        "pk":59,
        "model": "registrados.city",
        "fields":{
            "name": "Sergipe",
            "country_id": 3
        }
    },
    {
        "pk":60,
        "model": "registrados.city",
        "fields":{
            "name": "Tocantins",
            "country_id": 3
        }
    },
    {
        "pk":61,
        "model": "registrados.city",
        "fields":{
            "name": "Antofagasta",
            "country_id": 4
        }
    },
    {
        "pk":62,
        "model": "registrados.city",
        "fields":{
            "name": "Araucan\u00EDa",
            "country_id": 4
        }
    },
    {
        "pk":63,
        "model": "registrados.city",
        "fields":{
            "name": "Arica & Parinacota",
            "country_id": 4
        }
    },
    {
        "pk":64,
        "model": "registrados.city",
        "fields":{
            "name": "Atacama",
            "country_id": 4
        }
    },
    {
        "pk":65,
        "model": "registrados.city",
        "fields":{
            "name": "Ays\u00E9n",
            "country_id": 4
        }
    },
    {
        "pk":66,
        "model": "registrados.city",
        "fields":{
            "name": "Biob\u00EDo",
            "country_id": 4
        }
    },
    {
        "pk":67,
        "model": "registrados.city",
        "fields":{
            "name": "Coquimbo",
            "country_id": 4
        }
    },
    {
        "pk":68,
        "model": "registrados.city",
        "fields":{
            "name": "Los Lagos",
            "country_id": 4
        }
    },
    {
        "pk":69,
        "model": "registrados.city",
        "fields":{
            "name": "Los R\u00EDos",
            "country_id": 4
        }
    },
    {
        "pk":70,
        "model": "registrados.city",
        "fields":{
            "name": "Magallanes and Ant\u00E1rtica Chilena",
            "country_id": 4
        }
    },
    {
        "pk":71,
        "model": "registrados.city",
        "fields":{
            "name": "Maule",
            "country_id": 4
        }
    },
    {
        "pk":72,
        "model": "registrados.city",
        "fields":{
            "name": "O'Higgins",
            "country_id": 4
        }
    },
    {
        "pk":73,
        "model": "registrados.city",
        "fields":{
            "name": "Santiago Metropolitan",
            "country_id": 4
        }
    },
    {
        "pk":74,
        "model": "registrados.city",
        "fields":{
            "name": "Tarapac\u00E1",
            "country_id": 4
        }
    },
    {
        "pk":75,
        "model": "registrados.city",
        "fields":{
            "name": "Valpara\u00EDso",
            "country_id": 4
        }
    },
    {
        "pk":76,
        "model": "registrados.city",
        "fields":{
            "name": "Amazonas",
            "country_id": 5
        }
    },
    {
        "pk":77,
        "model": "registrados.city",
        "fields":{
            "name": "Antioquia",
            "country_id": 5
        }
    },
    {
        "pk":78,
        "model": "registrados.city",
        "fields":{
            "name": "Arauca",
            "country_id": 5
        }
    },
    {
        "pk":79,
        "model": "registrados.city",
        "fields":{
            "name": "Atl\u00E1ntico",
            "country_id": 5
        }
    },
    {
        "pk":80,
        "model": "registrados.city",
        "fields":{
            "name": "Bogot\u00E1",
            "country_id": 5
        }
    },
    {
        "pk":81,
        "model": "registrados.city",
        "fields":{
            "name": "Bol\u00EDvar",
            "country_id": 5
        }
    },
    {
        "pk":82,
        "model": "registrados.city",
        "fields":{
            "name": "Boyac\u00E1",
            "country_id": 5
        }
    },
    {
        "pk":83,
        "model": "registrados.city",
        "fields":{
            "name": "Caldas",
            "country_id": 5
        }
    },
    {
        "pk":84,
        "model": "registrados.city",
        "fields":{
            "name": "Caquet\u00E1",
            "country_id": 5
        }
    },
    {
        "pk":85,
        "model": "registrados.city",
        "fields":{
            "name": "Casanare",
            "country_id": 5
        }
    },
    {
        "pk":86,
        "model": "registrados.city",
        "fields":{
            "name": "Cauca",
            "country_id": 5
        }
    },
    {
        "pk":87,
        "model": "registrados.city",
        "fields":{
            "name": "Cesar",
            "country_id": 5
        }
    },
    {
        "pk":88,
        "model": "registrados.city",
        "fields":{
            "name": "Choc\u00F3",
            "country_id": 5
        }
    },
    {
        "pk":89,
        "model": "registrados.city",
        "fields":{
            "name": "C\u00F3rdoba",
            "country_id": 5
        }
    },
    {
        "pk":90,
        "model": "registrados.city",
        "fields":{
            "name": "Cundinamarca",
            "country_id": 5
        }
    },
    {
        "pk":91,
        "model": "registrados.city",
        "fields":{
            "name": "Guain\u00EDa",
            "country_id": 5
        }
    },
    {
        "pk":92,
        "model": "registrados.city",
        "fields":{
            "name": "Guaviare",
            "country_id": 5
        }
    },
    {
        "pk":93,
        "model": "registrados.city",
        "fields":{
            "name": "Huila",
            "country_id": 5
        }
    },
    {
        "pk":94,
        "model": "registrados.city",
        "fields":{
            "name": "La Guajira",
            "country_id": 5
        }
    },
    {
        "pk":95,
        "model": "registrados.city",
        "fields":{
            "name": "Magdalena",
            "country_id": 5
        }
    },
    {
        "pk":96,
        "model": "registrados.city",
        "fields":{
            "name": "Meta",
            "country_id": 5
        }
    },
    {
        "pk":97,
        "model": "registrados.city",
        "fields":{
            "name": "Nari\u00F1o",
            "country_id": 5
        }
    },
    {
        "pk":98,
        "model": "registrados.city",
        "fields":{
            "name": "Norte de Santander",
            "country_id": 5
        }
    },
    {
        "pk":99,
        "model": "registrados.city",
        "fields":{
            "name": "Putumayo",
            "country_id": 5
        }
    },
    {
        "pk":100,
        "model": "registrados.city",
        "fields":{
            "name": "Quind\u00EDo",
            "country_id": 5
        }
    },
    {
        "pk":101,
        "model": "registrados.city",
        "fields":{
            "name": "Risaralda",
            "country_id": 5
        }
    },
    {
        "pk":102,
        "model": "registrados.city",
        "fields":{
            "name": "San Andr\u00E9s y Providencia",
            "country_id": 5
        }
    },
    {
        "pk":103,
        "model": "registrados.city",
        "fields":{
            "name": "Santander",
            "country_id": 5
        }
    },
    {
        "pk":104,
        "model": "registrados.city",
        "fields":{
            "name": "Sucre",
            "country_id": 5
        }
    },
    {
        "pk":105,
        "model": "registrados.city",
        "fields":{
            "name": "Tolima",
            "country_id": 5
        }
    },
    {
        "pk":106,
        "model": "registrados.city",
        "fields":{
            "name": "Valle del Cauca",
            "country_id": 5
        }
    },
    {
        "pk":107,
        "model": "registrados.city",
        "fields":{
            "name": "Vaup\u00E9s",
            "country_id": 5
        }
    },
    {
        "pk":108,
        "model": "registrados.city",
        "fields":{
            "name": "Vichada",
            "country_id": 5
        }
    },
    {
        "pk":109,
        "model": "registrados.city",
        "fields":{
            "name": "Azuay",
            "country_id": 7
        }
    },
    {
        "pk":110,
        "model": "registrados.city",
        "fields":{
            "name": "Bol\u00EDvar",
            "country_id": 7
        }
    },
    {
        "pk":111,
        "model": "registrados.city",
        "fields":{
            "name": "Ca\u00F1ar",
            "country_id": 7
        }
    },
    {
        "pk":112,
        "model": "registrados.city",
        "fields":{
            "name": "Carchi",
            "country_id": 7
        }
    },
    {
        "pk":113,
        "model": "registrados.city",
        "fields":{
            "name": "Chimborazo",
            "country_id": 7
        }
    },
    {
        "pk":114,
        "model": "registrados.city",
        "fields":{
            "name": "Cotopaxi",
            "country_id": 7
        }
    },
    {
        "pk":115,
        "model": "registrados.city",
        "fields":{
            "name": "El Oro",
            "country_id": 7
        }
    },
    {
        "pk":116,
        "model": "registrados.city",
        "fields":{
            "name": "Esmeraldas",
            "country_id": 7
        }
    },
    {
        "pk":117,
        "model": "registrados.city",
        "fields":{
            "name": "Gal\u00E1pagos",
            "country_id": 7
        }
    },
    {
        "pk":118,
        "model": "registrados.city",
        "fields":{
            "name": "Guayas",
            "country_id": 7
        }
    },
    {
        "pk":119,
        "model": "registrados.city",
        "fields":{
            "name": "Imbabura",
            "country_id": 7
        }
    },
    {
        "pk":120,
        "model": "registrados.city",
        "fields":{
            "name": "Loja",
            "country_id": 7
        }
    },
    {
        "pk":121,
        "model": "registrados.city",
        "fields":{
            "name": "Los R\u00EDos",
            "country_id": 7
        }
    },
    {
        "pk":122,
        "model": "registrados.city",
        "fields":{
            "name": "Manab\u00ED",
            "country_id": 7
        }
    },
    {
        "pk":123,
        "model": "registrados.city",
        "fields":{
            "name": "Morona Santiago",
            "country_id": 7
        }
    },
    {
        "pk":124,
        "model": "registrados.city",
        "fields":{
            "name": "Napo",
            "country_id": 7
        }
    },
    {
        "pk":125,
        "model": "registrados.city",
        "fields":{
            "name": "Orellana",
            "country_id": 7
        }
    },
    {
        "pk":126,
        "model": "registrados.city",
        "fields":{
            "name": "Pastaza",
            "country_id": 7
        }
    },
    {
        "pk":127,
        "model": "registrados.city",
        "fields":{
            "name": "Pichincha",
            "country_id": 7
        }
    },
    {
        "pk":128,
        "model": "registrados.city",
        "fields":{
            "name": "Sta. Elena",
            "country_id": 7
        }
    },
    {
        "pk":129,
        "model": "registrados.city",
        "fields":{
            "name": "Sto. Domingo",
            "country_id": 7
        }
    },
    {
        "pk":130,
        "model": "registrados.city",
        "fields":{
            "name": "Sucumb\u00EDos",
            "country_id": 7
        }
    },
    {
        "pk":131,
        "model": "registrados.city",
        "fields":{
            "name": "Tungurahua",
            "country_id": 7
        }
    },
    {
        "pk":132,
        "model": "registrados.city",
        "fields":{
            "name": "Zamora",
            "country_id": 7
        }
    },
    {
        "pk":133,
        "model": "registrados.city",
        "fields":{
            "name": "\u00E1lava",
            "country_id": 9
        }
    },
    {
        "pk":134,
        "model": "registrados.city",
        "fields":{
            "name": "Albacete",
            "country_id": 9
        }
    },
    {
        "pk":135,
        "model": "registrados.city",
        "fields":{
            "name": "Alicante",
            "country_id": 9
        }
    },
    {
        "pk":136,
        "model": "registrados.city",
        "fields":{
            "name": "Almer\u00EDa",
            "country_id": 9
        }
    },
    {
        "pk":137,
        "model": "registrados.city",
        "fields":{
            "name": "Asturias",
            "country_id": 9
        }
    },
    {
        "pk":138,
        "model": "registrados.city",
        "fields":{
            "name": "\u00E1vila",
            "country_id": 9
        }
    },
    {
        "pk":139,
        "model": "registrados.city",
        "fields":{
            "name": "Badajoz",
            "country_id": 9
        }
    },
    {
        "pk":140,
        "model": "registrados.city",
        "fields":{
            "name": "Barcelona",
            "country_id": 9
        }
    },
    {
        "pk":141,
        "model": "registrados.city",
        "fields":{
            "name": "Burgos",
            "country_id": 9
        }
    },
    {
        "pk":142,
        "model": "registrados.city",
        "fields":{
            "name": "C\u00E1ceres",
            "country_id": 9
        }
    },
    {
        "pk":143,
        "model": "registrados.city",
        "fields":{
            "name": "C\u00E1diz",
            "country_id": 9
        }
    },
    {
        "pk":144,
        "model": "registrados.city",
        "fields":{
            "name": "Cantabria",
            "country_id": 9
        }
    },
    {
        "pk":145,
        "model": "registrados.city",
        "fields":{
            "name": "Castell\u00F3n",
            "country_id": 9
        }
    },
    {
        "pk":146,
        "model": "registrados.city",
        "fields":{
            "name": "Ciudad Real",
            "country_id": 9
        }
    },
    {
        "pk":147,
        "model": "registrados.city",
        "fields":{
            "name": "C\u00F3rdoba",
            "country_id": 9
        }
    },
    {
        "pk":148,
        "model": "registrados.city",
        "fields":{
            "name": "Cuenca",
            "country_id": 9
        }
    },
    {
        "pk":149,
        "model": "registrados.city",
        "fields":{
            "name": "Gerona",
            "country_id": 9
        }
    },
    {
        "pk":150,
        "model": "registrados.city",
        "fields":{
            "name": "Granada",
            "country_id": 9
        }
    },
    {
        "pk":151,
        "model": "registrados.city",
        "fields":{
            "name": "Guadalajara",
            "country_id": 9
        }
    },
    {
        "pk":152,
        "model": "registrados.city",
        "fields":{
            "name": "Guip\u00FAzcoa",
            "country_id": 9
        }
    },
    {
        "pk":153,
        "model": "registrados.city",
        "fields":{
            "name": "Huelva",
            "country_id": 9
        }
    },
    {
        "pk":154,
        "model": "registrados.city",
        "fields":{
            "name": "Huesca",
            "country_id": 9
        }
    },
    {
        "pk":155,
        "model": "registrados.city",
        "fields":{
            "name": "Islas Baleares",
            "country_id": 9
        }
    },
    {
        "pk":156,
        "model": "registrados.city",
        "fields":{
            "name": "Ja\u00E9n",
            "country_id": 9
        }
    },
    {
        "pk":157,
        "model": "registrados.city",
        "fields":{
            "name": "La Coru\u00F1a",
            "country_id": 9
        }
    },
    {
        "pk":158,
        "model": "registrados.city",
        "fields":{
            "name": "La Rioja",
            "country_id": 9
        }
    },
    {
        "pk":159,
        "model": "registrados.city",
        "fields":{
            "name": "Las Palmas",
            "country_id": 9
        }
    },
    {
        "pk":160,
        "model": "registrados.city",
        "fields":{
            "name": "Le\u00F3n",
            "country_id": 9
        }
    },
    {
        "pk":161,
        "model": "registrados.city",
        "fields":{
            "name": "L\u00E9rida",
            "country_id": 9
        }
    },
    {
        "pk":162,
        "model": "registrados.city",
        "fields":{
            "name": "Lugo",
            "country_id": 9
        }
    },
    {
        "pk":163,
        "model": "registrados.city",
        "fields":{
            "name": "Madrid",
            "country_id": 9
        }
    },
    {
        "pk":164,
        "model": "registrados.city",
        "fields":{
            "name": "M\u00E1laga",
            "country_id": 9
        }
    },
    {
        "pk":165,
        "model": "registrados.city",
        "fields":{
            "name": "Murcia",
            "country_id": 9
        }
    },
    {
        "pk":166,
        "model": "registrados.city",
        "fields":{
            "name": "Navarra",
            "country_id": 9
        }
    },
    {
        "pk":167,
        "model": "registrados.city",
        "fields":{
            "name": "Ourense",
            "country_id": 9
        }
    },
    {
        "pk":168,
        "model": "registrados.city",
        "fields":{
            "name": "Palencia",
            "country_id": 9
        }
    },
    {
        "pk":169,
        "model": "registrados.city",
        "fields":{
            "name": "Pontevedra",
            "country_id": 9
        }
    },
    {
        "pk":170,
        "model": "registrados.city",
        "fields":{
            "name": "Salamanca",
            "country_id": 9
        }
    },
    {
        "pk":171,
        "model": "registrados.city",
        "fields":{
            "name": "Santa Cruz de Tenerife",
            "country_id": 9
        }
    },
    {
        "pk":172,
        "model": "registrados.city",
        "fields":{
            "name": "Segovia",
            "country_id": 9
        }
    },
    {
        "pk":173,
        "model": "registrados.city",
        "fields":{
            "name": "Sevilla",
            "country_id": 9
        }
    },
    {
        "pk":174,
        "model": "registrados.city",
        "fields":{
            "name": "Soria",
            "country_id": 9
        }
    },
    {
        "pk":175,
        "model": "registrados.city",
        "fields":{
            "name": "Tarragona",
            "country_id": 9
        }
    },
    {
        "pk":176,
        "model": "registrados.city",
        "fields":{
            "name": "Teruel",
            "country_id": 9
        }
    },
    {
        "pk":177,
        "model": "registrados.city",
        "fields":{
            "name": "Toledo",
            "country_id": 9
        }
    },
    {
        "pk":178,
        "model": "registrados.city",
        "fields":{
            "name": "Valencia",
            "country_id": 9
        }
    },
    {
        "pk":179,
        "model": "registrados.city",
        "fields":{
            "name": "Valladolid",
            "country_id": 9
        }
    },
    {
        "pk":180,
        "model": "registrados.city",
        "fields":{
            "name": "Vizcaya",
            "country_id": 9
        }
    },
    {
        "pk":181,
        "model": "registrados.city",
        "fields":{
            "name": "Zamora",
            "country_id": 9
        }
    },
    {
        "pk":182,
        "model": "registrados.city",
        "fields":{
            "name": "Zaragoza",
            "country_id": 9
        }
    },
    {
        "pk":183,
        "model": "registrados.city",
        "fields":{
            "name": "Alabama",
            "country_id": 10
        }
    },
    {
        "pk":184,
        "model": "registrados.city",
        "fields":{
            "name": "Alaska",
            "country_id": 10
        }
    },
    {
        "pk":185,
        "model": "registrados.city",
        "fields":{
            "name": "Arizona",
            "country_id": 10
        }
    },
    {
        "pk":186,
        "model": "registrados.city",
        "fields":{
            "name": "Arkansas",
            "country_id": 10
        }
    },
    {
        "pk":187,
        "model": "registrados.city",
        "fields":{
            "name": "California",
            "country_id": 10
        }
    },
    {
        "pk":188,
        "model": "registrados.city",
        "fields":{
            "name": "Colorado",
            "country_id": 10
        }
    },
    {
        "pk":189,
        "model": "registrados.city",
        "fields":{
            "name": "Connecticut",
            "country_id": 10
        }
    },
    {
        "pk":190,
        "model": "registrados.city",
        "fields":{
            "name": "Delaware",
            "country_id": 10
        }
    },
    {
        "pk":191,
        "model": "registrados.city",
        "fields":{
            "name": "Florida",
            "country_id": 10
        }
    },
    {
        "pk":192,
        "model": "registrados.city",
        "fields":{
            "name": "Georgia",
            "country_id": 10
        }
    },
    {
        "pk":193,
        "model": "registrados.city",
        "fields":{
            "name": "Hawaii",
            "country_id": 10
        }
    },
    {
        "pk":194,
        "model": "registrados.city",
        "fields":{
            "name": "Idaho",
            "country_id": 10
        }
    },
    {
        "pk":195,
        "model": "registrados.city",
        "fields":{
            "name": "Illinois",
            "country_id": 10
        }
    },
    {
        "pk":196,
        "model": "registrados.city",
        "fields":{
            "name": "Indiana",
            "country_id": 10
        }
    },
    {
        "pk":197,
        "model": "registrados.city",
        "fields":{
            "name": "Iowa",
            "country_id": 10
        }
    },
    {
        "pk":198,
        "model": "registrados.city",
        "fields":{
            "name": "Kansas",
            "country_id": 10
        }
    },
    {
        "pk":199,
        "model": "registrados.city",
        "fields":{
            "name": "Kentucky",
            "country_id": 10
        }
    },
    {
        "pk":200,
        "model": "registrados.city",
        "fields":{
            "name": "Louisiana",
            "country_id": 10
        }
    },
    {
        "pk":201,
        "model": "registrados.city",
        "fields":{
            "name": "Maine",
            "country_id": 10
        }
    },
    {
        "pk":202,
        "model": "registrados.city",
        "fields":{
            "name": "Maryland",
            "country_id": 10
        }
    },
    {
        "pk":203,
        "model": "registrados.city",
        "fields":{
            "name": "Massachusetts",
            "country_id": 10
        }
    },
    {
        "pk":204,
        "model": "registrados.city",
        "fields":{
            "name": "Michigan",
            "country_id": 10
        }
    },
    {
        "pk":205,
        "model": "registrados.city",
        "fields":{
            "name": "Minnesota",
            "country_id": 10
        }
    },
    {
        "pk":206,
        "model": "registrados.city",
        "fields":{
            "name": "Mississippi",
            "country_id": 10
        }
    },
    {
        "pk":207,
        "model": "registrados.city",
        "fields":{
            "name": "Missouri",
            "country_id": 10
        }
    },
    {
        "pk":208,
        "model": "registrados.city",
        "fields":{
            "name": "Montana",
            "country_id": 10
        }
    },
    {
        "pk":209,
        "model": "registrados.city",
        "fields":{
            "name": "Nebraska",
            "country_id": 10
        }
    },
    {
        "pk":210,
        "model": "registrados.city",
        "fields":{
            "name": "Nevada",
            "country_id": 10
        }
    },
    {
        "pk":211,
        "model": "registrados.city",
        "fields":{
            "name": "New Hampshire",
            "country_id": 10
        }
    },
    {
        "pk":212,
        "model": "registrados.city",
        "fields":{
            "name": "New Jersey",
            "country_id": 10
        }
    },
    {
        "pk":213,
        "model": "registrados.city",
        "fields":{
            "name": "New Mexico",
            "country_id": 10
        }
    },
    {
        "pk":214,
        "model": "registrados.city",
        "fields":{
            "name": "New York",
            "country_id": 10
        }
    },
    {
        "pk":215,
        "model": "registrados.city",
        "fields":{
            "name": "North Carolina",
            "country_id": 10
        }
    },
    {
        "pk":216,
        "model": "registrados.city",
        "fields":{
            "name": "North Dakota",
            "country_id": 10
        }
    },
    {
        "pk":217,
        "model": "registrados.city",
        "fields":{
            "name": "Ohio",
            "country_id": 10
        }
    },
    {
        "pk":218,
        "model": "registrados.city",
        "fields":{
            "name": "Oklahoma",
            "country_id": 10
        }
    },
    {
        "pk":219,
        "model": "registrados.city",
        "fields":{
            "name": "Oregon",
            "country_id": 10
        }
    },
    {
        "pk":220,
        "model": "registrados.city",
        "fields":{
            "name": "Pennsylvania",
            "country_id": 10
        }
    },
    {
        "pk":221,
        "model": "registrados.city",
        "fields":{
            "name": "Rhode Island",
            "country_id": 10
        }
    },
    {
        "pk":222,
        "model": "registrados.city",
        "fields":{
            "name": "South Carolina",
            "country_id": 10
        }
    },
    {
        "pk":223,
        "model": "registrados.city",
        "fields":{
            "name": "South Dakota",
            "country_id": 10
        }
    },
    {
        "pk":224,
        "model": "registrados.city",
        "fields":{
            "name": "Tennessee",
            "country_id": 10
        }
    },
    {
        "pk":225,
        "model": "registrados.city",
        "fields":{
            "name": "Texas",
            "country_id": 10
        }
    },
    {
        "pk":226,
        "model": "registrados.city",
        "fields":{
            "name": "Utah",
            "country_id": 10
        }
    },
    {
        "pk":227,
        "model": "registrados.city",
        "fields":{
            "name": "Vermont",
            "country_id": 10
        }
    },
    {
        "pk":228,
        "model": "registrados.city",
        "fields":{
            "name": "Virginia",
            "country_id": 10
        }
    },
    {
        "pk":229,
        "model": "registrados.city",
        "fields":{
            "name": "Washington",
            "country_id": 10
        }
    },
    {
        "pk":230,
        "model": "registrados.city",
        "fields":{
            "name": "West Virginia",
            "country_id": 10
        }
    },
    {
        "pk":231,
        "model": "registrados.city",
        "fields":{
            "name": "Wisconsin",
            "country_id": 10
        }
    },
    {
        "pk":232,
        "model": "registrados.city",
        "fields":{
            "name": "Wyoming",
            "country_id": 10
        }
    },
    {
        "pk":233,
        "model": "registrados.city",
        "fields":{
            "name": "Alta Verapaz",
            "country_id": 11
        }
    },
    {
        "pk":234,
        "model": "registrados.city",
        "fields":{
            "name": "Baja Verapaz",
            "country_id": 11
        }
    },
    {
        "pk":235,
        "model": "registrados.city",
        "fields":{
            "name": "Chimaltenango",
            "country_id": 11
        }
    },
    {
        "pk":236,
        "model": "registrados.city",
        "fields":{
            "name": "Chiquimula",
            "country_id": 11
        }
    },
    {
        "pk":237,
        "model": "registrados.city",
        "fields":{
            "name": "El Progreso",
            "country_id": 11
        }
    },
    {
        "pk":238,
        "model": "registrados.city",
        "fields":{
            "name": "Escuintla",
            "country_id": 11
        }
    },
    {
        "pk":239,
        "model": "registrados.city",
        "fields":{
            "name": "Guatemala",
            "country_id": 11
        }
    },
    {
        "pk":240,
        "model": "registrados.city",
        "fields":{
            "name": "Huehuetenango",
            "country_id": 11
        }
    },
    {
        "pk":241,
        "model": "registrados.city",
        "fields":{
            "name": "Izabal",
            "country_id": 11
        }
    },
    {
        "pk":242,
        "model": "registrados.city",
        "fields":{
            "name": "Jalapa",
            "country_id": 11
        }
    },
    {
        "pk":243,
        "model": "registrados.city",
        "fields":{
            "name": "Jutiapa",
            "country_id": 11
        }
    },
    {
        "pk":244,
        "model": "registrados.city",
        "fields":{
            "name": "Pet\u00E9n",
            "country_id": 11
        }
    },
    {
        "pk":245,
        "model": "registrados.city",
        "fields":{
            "name": "Quetzaltenango",
            "country_id": 11
        }
    },
    {
        "pk":246,
        "model": "registrados.city",
        "fields":{
            "name": "Quich\u00E9",
            "country_id": 11
        }
    },
    {
        "pk":247,
        "model": "registrados.city",
        "fields":{
            "name": "Retalhuleu",
            "country_id": 11
        }
    },
    {
        "pk":248,
        "model": "registrados.city",
        "fields":{
            "name": "Sacatep\u00E9quez",
            "country_id": 11
        }
    },
    {
        "pk":249,
        "model": "registrados.city",
        "fields":{
            "name": "San Marcos",
            "country_id": 11
        }
    },
    {
        "pk":250,
        "model": "registrados.city",
        "fields":{
            "name": "Santa Rosa",
            "country_id": 11
        }
    },
    {
        "pk":251,
        "model": "registrados.city",
        "fields":{
            "name": "Solol\u00E1",
            "country_id": 11
        }
    },
    {
        "pk":252,
        "model": "registrados.city",
        "fields":{
            "name": "Suchitep\u00E9quez",
            "country_id": 11
        }
    },
    {
        "pk":253,
        "model": "registrados.city",
        "fields":{
            "name": "Totonicap\u00E1n",
            "country_id": 11
        }
    },
    {
        "pk":254,
        "model": "registrados.city",
        "fields":{
            "name": "Zacapa",
            "country_id": 11
        }
    },
    {
        "pk":255,
        "model": "registrados.city",
        "fields":{
            "name": "Aguas Calientes",
            "country_id": 13
        }
    },
    {
        "pk":256,
        "model": "registrados.city",
        "fields":{
            "name": "Baja California",
            "country_id": 13
        }
    },
    {
        "pk":257,
        "model": "registrados.city",
        "fields":{
            "name": "Baja California Sur",
            "country_id": 13
        }
    },
    {
        "pk":258,
        "model": "registrados.city",
        "fields":{
            "name": "Campeche",
            "country_id": 13
        }
    },
    {
        "pk":259,
        "model": "registrados.city",
        "fields":{
            "name": "Chiapas",
            "country_id": 13
        }
    },
    {
        "pk":260,
        "model": "registrados.city",
        "fields":{
            "name": "Chihuahua",
            "country_id": 13
        }
    },
    {
        "pk":261,
        "model": "registrados.city",
        "fields":{
            "name": "Coahuila",
            "country_id": 13
        }
    },
    {
        "pk":262,
        "model": "registrados.city",
        "fields":{
            "name": "Colima",
            "country_id": 13
        }
    },
    {
        "pk":263,
        "model": "registrados.city",
        "fields":{
            "name": "Distrito Federal",
            "country_id": 13
        }
    },
    {
        "pk":264,
        "model": "registrados.city",
        "fields":{
            "name": "Durango",
            "country_id": 13
        }
    },
    {
        "pk":265,
        "model": "registrados.city",
        "fields":{
            "name": "Estado de M\u00E9xico",
            "country_id": 13
        }
    },
    {
        "pk":266,
        "model": "registrados.city",
        "fields":{
            "name": "Guanajuato",
            "country_id": 13
        }
    },
    {
        "pk":267,
        "model": "registrados.city",
        "fields":{
            "name": "Guerrero",
            "country_id": 13
        }
    },
    {
        "pk":268,
        "model": "registrados.city",
        "fields":{
            "name": "Hidalgo",
            "country_id": 13
        }
    },
    {
        "pk":269,
        "model": "registrados.city",
        "fields":{
            "name": "Jalisco",
            "country_id": 13
        }
    },
    {
        "pk":270,
        "model": "registrados.city",
        "fields":{
            "name": "Michoac\u00E1n",
            "country_id": 13
        }
    },
    {
        "pk":271,
        "model": "registrados.city",
        "fields":{
            "name": "Morelos",
            "country_id": 13
        }
    },
    {
        "pk":272,
        "model": "registrados.city",
        "fields":{
            "name": "Nayarit",
            "country_id": 13
        }
    },
    {
        "pk":273,
        "model": "registrados.city",
        "fields":{
            "name": "Nuevo Le\u00F3n",
            "country_id": 13
        }
    },
    {
        "pk":274,
        "model": "registrados.city",
        "fields":{
            "name": "Oaxaca",
            "country_id": 13
        }
    },
    {
        "pk":275,
        "model": "registrados.city",
        "fields":{
            "name": "Puebla",
            "country_id": 13
        }
    },
    {
        "pk":276,
        "model": "registrados.city",
        "fields":{
            "name": "Quer\u00E9taro",
            "country_id": 13
        }
    },
    {
        "pk":277,
        "model": "registrados.city",
        "fields":{
            "name": "Quintana Roo",
            "country_id": 13
        }
    },
    {
        "pk":278,
        "model": "registrados.city",
        "fields":{
            "name": "San Luis Potos\u00ED",
            "country_id": 13
        }
    },
    {
        "pk":279,
        "model": "registrados.city",
        "fields":{
            "name": "Sinaloa",
            "country_id": 13
        }
    },
    {
        "pk":280,
        "model": "registrados.city",
        "fields":{
            "name": "Sonora",
            "country_id": 13
        }
    },
    {
        "pk":281,
        "model": "registrados.city",
        "fields":{
            "name": "Tabasco",
            "country_id": 13
        }
    },
    {
        "pk":282,
        "model": "registrados.city",
        "fields":{
            "name": "Tamaulipas",
            "country_id": 13
        }
    },
    {
        "pk":283,
        "model": "registrados.city",
        "fields":{
            "name": "Tlaxcala",
            "country_id": 13
        }
    },
    {
        "pk":284,
        "model": "registrados.city",
        "fields":{
            "name": "Veracruz",
            "country_id": 13
        }
    },
    {
        "pk":285,
        "model": "registrados.city",
        "fields":{
            "name": "Yucat\u00E1n",
            "country_id": 13
        }
    },
    {
        "pk":286,
        "model": "registrados.city",
        "fields":{
            "name": "Zacatecas",
            "country_id": 13
        }
    },
    {
        "pk":287,
        "model": "registrados.city",
        "fields":{
            "name": "Amazonas",
            "country_id": 17
        }
    },
    {
        "pk":288,
        "model": "registrados.city",
        "fields":{
            "name": "Ancash",
            "country_id": 17
        }
    },
    {
        "pk":289,
        "model": "registrados.city",
        "fields":{
            "name": "Apur\u00EDmac",
            "country_id": 17
        }
    },
    {
        "pk":290,
        "model": "registrados.city",
        "fields":{
            "name": "Arequipa",
            "country_id": 17
        }
    },
    {
        "pk":291,
        "model": "registrados.city",
        "fields":{
            "name": "Ayacucho",
            "country_id": 17
        }
    },
    {
        "pk":292,
        "model": "registrados.city",
        "fields":{
            "name": "Cajamarca",
            "country_id": 17
        }
    },
    {
        "pk":293,
        "model": "registrados.city",
        "fields":{
            "name": "Callao",
            "country_id": 17
        }
    },
    {
        "pk":294,
        "model": "registrados.city",
        "fields":{
            "name": "Cuzco",
            "country_id": 17
        }
    },
    {
        "pk":295,
        "model": "registrados.city",
        "fields":{
            "name": "Huancavelica",
            "country_id": 17
        }
    },
    {
        "pk":296,
        "model": "registrados.city",
        "fields":{
            "name": "Hu\u00E1nuco",
            "country_id": 17
        }
    },
    {
        "pk":297,
        "model": "registrados.city",
        "fields":{
            "name": "Ica",
            "country_id": 17
        }
    },
    {
        "pk":298,
        "model": "registrados.city",
        "fields":{
            "name": "Jun\u00EDn",
            "country_id": 17
        }
    },
    {
        "pk":299,
        "model": "registrados.city",
        "fields":{
            "name": "La Libertad",
            "country_id": 17
        }
    },
    {
        "pk":300,
        "model": "registrados.city",
        "fields":{
            "name": "Lambayeque",
            "country_id": 17
        }
    },
    {
        "pk":301,
        "model": "registrados.city",
        "fields":{
            "name": "Lima",
            "country_id": 17
        }
    },
    {
        "pk":302,
        "model": "registrados.city",
        "fields":{
            "name": "Loreto",
            "country_id": 17
        }
    },
    {
        "pk":303,
        "model": "registrados.city",
        "fields":{
            "name": "Madre de Dios",
            "country_id": 17
        }
    },
    {
        "pk":304,
        "model": "registrados.city",
        "fields":{
            "name": "Moquegua",
            "country_id": 17
        }
    },
    {
        "pk":305,
        "model": "registrados.city",
        "fields":{
            "name": "Pasco",
            "country_id": 17
        }
    },
    {
        "pk":306,
        "model": "registrados.city",
        "fields":{
            "name": "Piura",
            "country_id": 17
        }
    },
    {
        "pk":307,
        "model": "registrados.city",
        "fields":{
            "name": "Puno",
            "country_id": 17
        }
    },
    {
        "pk":308,
        "model": "registrados.city",
        "fields":{
            "name": "San Mart\u00EDn",
            "country_id": 17
        }
    },
    {
        "pk":309,
        "model": "registrados.city",
        "fields":{
            "name": "Tacna",
            "country_id": 17
        }
    },
    {
        "pk":310,
        "model": "registrados.city",
        "fields":{
            "name": "Tumbes",
            "country_id": 17
        }
    },
    {
        "pk":311,
        "model": "registrados.city",
        "fields":{
            "name": "Ucayali",
            "country_id": 17
        }
    },
    {
        "pk":312,
        "model": "registrados.city",
        "fields":{
            "name": "Alberta",
            "country_id": 54
        }
    },
    {
        "pk":313,
        "model": "registrados.city",
        "fields":{
            "name": "British Columbia",
            "country_id": 54
        }
    },
    {
        "pk":314,
        "model": "registrados.city",
        "fields":{
            "name": "Manitoba",
            "country_id": 54
        }
    },
    {
        "pk":315,
        "model": "registrados.city",
        "fields":{
            "name": "New Brunswick",
            "country_id": 54
        }
    },
    {
        "pk":316,
        "model": "registrados.city",
        "fields":{
            "name": "Newfoundland and Labrador",
            "country_id": 54
        }
    },
    {
        "pk":317,
        "model": "registrados.city",
        "fields":{
            "name": "Northwest Territories",
            "country_id": 54
        }
    },
    {
        "pk":318,
        "model": "registrados.city",
        "fields":{
            "name": "Nova Scotia",
            "country_id": 54
        }
    },
    {
        "pk":319,
        "model": "registrados.city",
        "fields":{
            "name": "Nunavut",
            "country_id": 54
        }
    },
    {
        "pk":320,
        "model": "registrados.city",
        "fields":{
            "name": "Ontario",
            "country_id": 54
        }
    },
    {
        "pk":321,
        "model": "registrados.city",
        "fields":{
            "name": "Prince Edward Island",
            "country_id": 54
        }
    },
    {
        "pk":322,
        "model": "registrados.city",
        "fields":{
            "name": "Quebec",
            "country_id": 54
        }
    },
    {
        "pk":323,
        "model": "registrados.city",
        "fields":{
            "name": "Saskatchewan",
            "country_id": 54
        }
    },
    {
        "pk":324,
        "model": "registrados.city",
        "fields":{
            "name": "Yukon",
            "country_id": 54
        }
    },
    {
        "pk":325,
        "model": "registrados.city",
        "fields":{
            "name": "Adana",
            "country_id": 185
        }
    },
    {
        "pk":326,
        "model": "registrados.city",
        "fields":{
            "name": "Ad\u0131yaman",
            "country_id": 185
        }
    },
    {
        "pk":327,
        "model": "registrados.city",
        "fields":{
            "name": "Afyon",
            "country_id": 185
        }
    },
    {
        "pk":328,
        "model": "registrados.city",
        "fields":{
            "name": "A\u011Fr\u0131",
            "country_id": 185
        }
    },
    {
        "pk":329,
        "model": "registrados.city",
        "fields":{
            "name": "Aksaray",
            "country_id": 185
        }
    },
    {
        "pk":330,
        "model": "registrados.city",
        "fields":{
            "name": "Amasya",
            "country_id": 185
        }
    },
    {
        "pk":331,
        "model": "registrados.city",
        "fields":{
            "name": "Ankara",
            "country_id": 185
        }
    },
    {
        "pk":332,
        "model": "registrados.city",
        "fields":{
            "name": "Antalya",
            "country_id": 185
        }
    },
    {
        "pk":333,
        "model": "registrados.city",
        "fields":{
            "name": "Ardahan",
            "country_id": 185
        }
    },
    {
        "pk":334,
        "model": "registrados.city",
        "fields":{
            "name": "Artvin",
            "country_id": 185
        }
    },
    {
        "pk":335,
        "model": "registrados.city",
        "fields":{
            "name": "Ayd\u0131n",
            "country_id": 185
        }
    },
    {
        "pk":336,
        "model": "registrados.city",
        "fields":{
            "name": "Bal\u0131kesir",
            "country_id": 185
        }
    },
    {
        "pk":337,
        "model": "registrados.city",
        "fields":{
            "name": "Bart\u0131n",
            "country_id": 185
        }
    },
    {
        "pk":338,
        "model": "registrados.city",
        "fields":{
            "name": "Batman",
            "country_id": 185
        }
    },
    {
        "pk":339,
        "model": "registrados.city",
        "fields":{
            "name": "Bayburt",
            "country_id": 185
        }
    },
    {
        "pk":340,
        "model": "registrados.city",
        "fields":{
            "name": "Bilecik",
            "country_id": 185
        }
    },
    {
        "pk":341,
        "model": "registrados.city",
        "fields":{
            "name": "Bingöl",
            "country_id": 185
        }
    },
    {
        "pk":342,
        "model": "registrados.city",
        "fields":{
            "name": "Bitlis",
            "country_id": 185
        }
    },
    {
        "pk":343,
        "model": "registrados.city",
        "fields":{
            "name": "Bolu",
            "country_id": 185
        }
    },
    {
        "pk":344,
        "model": "registrados.city",
        "fields":{
            "name": "Burdur",
            "country_id": 185
        }
    },
    {
        "pk":345,
        "model": "registrados.city",
        "fields":{
            "name": "Bursa",
            "country_id": 185
        }
    },
    {
        "pk":346,
        "model": "registrados.city",
        "fields":{
            "name": "Çanakkale",
            "country_id": 185
        }
    },
    {
        "pk":347,
        "model": "registrados.city",
        "fields":{
            "name": "Çank\u0131r\u0131",
            "country_id": 185
        }
    },
    {
        "pk":348,
        "model": "registrados.city",
        "fields":{
            "name": "Çorum",
            "country_id": 185
        }
    },
    {
        "pk":349,
        "model": "registrados.city",
        "fields":{
            "name": "Denizli",
            "country_id": 185
        }
    },
    {
        "pk":350,
        "model": "registrados.city",
        "fields":{
            "name": "Diyarbak\u0131r",
            "country_id": 185
        }
    },
    {
        "pk":351,
        "model": "registrados.city",
        "fields":{
            "name": "D\u00FCzce",
            "country_id": 185
        }
    },
    {
        "pk":352,
        "model": "registrados.city",
        "fields":{
            "name": "Edirne",
            "country_id": 185
        }
    },
    {
        "pk":353,
        "model": "registrados.city",
        "fields":{
            "name": "Elaz\u0131\u011F",
            "country_id": 185
        }
    },
    {
        "pk":354,
        "model": "registrados.city",
        "fields":{
            "name": "Erzincan",
            "country_id": 185
        }
    },
    {
        "pk":355,
        "model": "registrados.city",
        "fields":{
            "name": "Erzurum",
            "country_id": 185
        }
    },
    {
        "pk":356,
        "model": "registrados.city",
        "fields":{
            "name": "Eskisehir",
            "country_id": 185
        }
    },
    {
        "pk":357,
        "model": "registrados.city",
        "fields":{
            "name": "Gaziantep",
            "country_id": 185
        }
    },
    {
        "pk":358,
        "model": "registrados.city",
        "fields":{
            "name": "Giresun",
            "country_id": 185
        }
    },
    {
        "pk":359,
        "model": "registrados.city",
        "fields":{
            "name": "G\u00FCm\u00FC\u015Fhane",
            "country_id": 185
        }
    },
    {
        "pk":360,
        "model": "registrados.city",
        "fields":{
            "name": "Hakkari",
            "country_id": 185
        }
    },
    {
        "pk":361,
        "model": "registrados.city",
        "fields":{
            "name": "Hatay",
            "country_id": 185
        }
    },
    {
        "pk":362,
        "model": "registrados.city",
        "fields":{
            "name": "I\u011Fd\u0131r",
            "country_id": 185
        }
    },
    {
        "pk":363,
        "model": "registrados.city",
        "fields":{
            "name": "Isparta",
            "country_id": 185
        }
    },
    {
        "pk":364,
        "model": "registrados.city",
        "fields":{
            "name": "Istanbul (Asya Yakas\u0131)",
            "country_id": 185
        }
    },
    {
        "pk":365,
        "model": "registrados.city",
        "fields":{
            "name": "Istanbul (Avrupa Yakas\u0131)",
            "country_id": 185
        }
    },
    {
        "pk":366,
        "model": "registrados.city",
        "fields":{
            "name": "İzmir",
            "country_id": 185
        }
    },
    {
        "pk":367,
        "model": "registrados.city",
        "fields":{
            "name": "Kahramanmara\u015F",
            "country_id": 185
        }
    },
    {
        "pk":368,
        "model": "registrados.city",
        "fields":{
            "name": "Karab\u00FCk",
            "country_id": 185
        }
    },
    {
        "pk":369,
        "model": "registrados.city",
        "fields":{
            "name": "Karaman",
            "country_id": 185
        }
    },
    {
        "pk":370,
        "model": "registrados.city",
        "fields":{
            "name": "Kars",
            "country_id": 185
        }
    },
    {
        "pk":371,
        "model": "registrados.city",
        "fields":{
            "name": "Kastamonu",
            "country_id": 185
        }
    },
    {
        "pk":372,
        "model": "registrados.city",
        "fields":{
            "name": "Kayseri",
            "country_id": 185
        }
    },
    {
        "pk":373,
        "model": "registrados.city",
        "fields":{
            "name": "Kilis",
            "country_id": 185
        }
    },
    {
        "pk":374,
        "model": "registrados.city",
        "fields":{
            "name": "K\u0131r\u0131kkale",
            "country_id": 185
        }
    },
    {
        "pk":375,
        "model": "registrados.city",
        "fields":{
            "name": "K\u0131rklareli",
            "country_id": 185
        }
    },
    {
        "pk":376,
        "model": "registrados.city",
        "fields":{
            "name": "K\u0131r\u015Fehir",
            "country_id": 185
        }
    },
    {
        "pk":377,
        "model": "registrados.city",
        "fields":{
            "name": "Kocaeli",
            "country_id": 185
        }
    },
    {
        "pk":378,
        "model": "registrados.city",
        "fields":{
            "name": "Konya",
            "country_id": 185
        }
    },
    {
        "pk":379,
        "model": "registrados.city",
        "fields":{
            "name": "K\u00FCtahya",
            "country_id": 185
        }
    },
    {
        "pk":380,
        "model": "registrados.city",
        "fields":{
            "name": "Malatya",
            "country_id": 185
        }
    },
    {
        "pk":381,
        "model": "registrados.city",
        "fields":{
            "name": "Manisa",
            "country_id": 185
        }
    },
    {
        "pk":382,
        "model": "registrados.city",
        "fields":{
            "name": "Mardin",
            "country_id": 185
        }
    },
    {
        "pk":383,
        "model": "registrados.city",
        "fields":{
            "name": "Mersin",
            "country_id": 185
        }
    },
    {
        "pk":384,
        "model": "registrados.city",
        "fields":{
            "name": "Mu\u011Fla",
            "country_id": 185
        }
    },
    {
        "pk":385,
        "model": "registrados.city",
        "fields":{
            "name": "Mu\u015F",
            "country_id": 185
        }
    },
    {
        "pk":386,
        "model": "registrados.city",
        "fields":{
            "name": "Nev\u015Fehir",
            "country_id": 185
        }
    },
    {
        "pk":387,
        "model": "registrados.city",
        "fields":{
            "name": "Ni\u011Fde",
            "country_id": 185
        }
    },
    {
        "pk":388,
        "model": "registrados.city",
        "fields":{
            "name": "Northern Cyprus",
            "country_id": 185
        }
    },
    {
        "pk":389,
        "model": "registrados.city",
        "fields":{
            "name": "Ordu",
            "country_id": 185
        }
    },
    {
        "pk":390,
        "model": "registrados.city",
        "fields":{
            "name": "Osmaniye",
            "country_id": 185
        }
    },
    {
        "pk":391,
        "model": "registrados.city",
        "fields":{
            "name": "Rize",
            "country_id": 185
        }
    },
    {
        "pk":392,
        "model": "registrados.city",
        "fields":{
            "name": "Sakarya",
            "country_id": 185
        }
    },
    {
        "pk":393,
        "model": "registrados.city",
        "fields":{
            "name": "Samsun",
            "country_id": 185
        }
    },
    {
        "pk":394,
        "model": "registrados.city",
        "fields":{
            "name": "\u015Fanl\u0131urfa",
            "country_id": 185
        }
    },
    {
        "pk":395,
        "model": "registrados.city",
        "fields":{
            "name": "Siirt",
            "country_id": 185
        }
    },
    {
        "pk":396,
        "model": "registrados.city",
        "fields":{
            "name": "Sinop",
            "country_id": 185
        }
    },
    {
        "pk":397,
        "model": "registrados.city",
        "fields":{
            "name": "\u015F\u0131rnak",
            "country_id": 185
        }
    },
    {
        "pk":398,
        "model": "registrados.city",
        "fields":{
            "name": "Sivas",
            "country_id": 185
        }
    },
    {
        "pk":399,
        "model": "registrados.city",
        "fields":{
            "name": "Tekirda\u011F",
            "country_id": 185
        }
    },
    {
        "pk":400,
        "model": "registrados.city",
        "fields":{
            "name": "Tokat",
            "country_id": 185
        }
    },
    {
        "pk":401,
        "model": "registrados.city",
        "fields":{
            "name": "Trabzon",
            "country_id": 185
        }
    },
    {
        "pk":402,
        "model": "registrados.city",
        "fields":{
            "name": "Tunceli",
            "country_id": 185
        }
    },
    {
        "pk":403,
        "model": "registrados.city",
        "fields":{
            "name": "U\u015Fak",
            "country_id": 185
        }
    },
    {
        "pk":404,
        "model": "registrados.city",
        "fields":{
            "name": "Van",
            "country_id": 185
        }
    },
    {
        "pk":405,
        "model": "registrados.city",
        "fields":{
            "name": "Yalova",
            "country_id": 185
        }
    },
    {
        "pk":406,
        "model": "registrados.city",
        "fields":{
            "name": "Yozgat",
            "country_id": 185
        }
    },
    {
        "pk":407,
        "model": "registrados.city",
        "fields":{
            "name": "Zonguldak",
            "country_id": 185
        }
    }
]